…
## NHL records API

``` r
# map id, team names and most recent id
franchise.url <- GET("https://records.nhl.com/site/api/franchise")
franchise.txt <- content(franchise.url, "text", encoding = "UTF-8")
franchise.json <- fromJSON(franchise.txt, flatten=TRUE)
franchise.list <- franchise.json$data %>% as.data.frame()
franchise.tbl <- tibble(franchise.list$id, franchise.list$teamCommonName, franchise.list$fullName, franchise.list$mostRecentTeamId)
franchise.tbl
```

    ## # A tibble: 39 x 4
    ##    `franchise.list$… `franchise.list$tea… `franchise.list$f… `franchise.list$mo…
    ##                <int> <chr>                <chr>                            <int>
    ##  1                 1 Canadiens            Montréal Canadiens                   8
    ##  2                 2 Wanderers            Montreal Wanderers                  41
    ##  3                 3 Eagles               St. Louis Eagles                    45
    ##  4                 4 Tigers               Hamilton Tigers                     37
    ##  5                 5 Maple Leafs          Toronto Maple Lea…                  10
    ##  6                 6 Bruins               Boston Bruins                        6
    ##  7                 7 Maroons              Montreal Maroons                    43
    ##  8                 8 Americans            Brooklyn Americans                  51
    ##  9                 9 Quakers              Philadelphia Quak…                  39
    ## 10                10 Rangers              New York Rangers                     3
    ## # … with 29 more rows
…
  else {
    return ("Invalid combination of inputs, please try again.")
  }
  
  return(output)
}
```

``` r
get.nhl.data(table.name = "franchise-detail")
```

    ## # A tibble: 39 x 13
    ##       id active captainHistory     coachingHistory     dateAwarded directoryUrl 
    ##    <int> <lgl>  <chr>              <chr>               <chr>       <chr>        
    ##  1     1 TRUE   "<ul class=\"stri… "<ul class=\"strip… 1917-11-26… https://www.…
    ##  2     2 FALSE   <NA>               <NA>               1917-11-26… <NA>         
    ##  3     3 FALSE   <NA>               <NA>               1917-11-26… <NA>         
    ##  4     4 FALSE   <NA>               <NA>               1917-11-26… <NA>         
    ##  5     5 TRUE   "<ul class=\"stri… "<ul class=\"strip… 1917-11-26… https://www.…
    ##  6     6 TRUE   "<ul class=\"stri… "<ul class=\"strip… 1924-11-01… https://www.…
    ##  7     7 FALSE   <NA>               <NA>               1924-11-01… <NA>         
    ##  8     8 FALSE   <NA>               <NA>               1925-09-22… <NA>         
    ##  9     9 FALSE   <NA>               <NA>               1925-11-07… <NA>         
    ## 10    10 TRUE   "<ul class=\"stri… "<ul class=\"strip… 1926-05-15… https://www.…
    ## # … with 29 more rows, and 7 more variables: firstSeasonId <int>,
    ## #   generalManagerHistory <chr>, heroImageUrl <chr>, mostRecentTeamId <int>,
    ## #   retiredNumbersSummary <chr>, teamAbbrev <chr>, teamFullName <chr>
…
# get division data for different teams from "team.stats"
division <- get.nhl.data(modifier = "team.stats") %>% select(franchiseId, name, abbreviation, teamName, venue.name, venue.city, division.id, division.name, conference.id, conference.name)

# find common columns between the 2 data frames
common.names.dv <- intersect(names(team.total), names(division))
```

``` r
# combine the 2 tables together using "franchiseId" as index
new.data <- left_join(team.total, division, by="franchiseId")
new.data
```

    ## # A tibble: 62 x 39
    ##    activeFranchise gameTypeId lastSeasonId    id firstSeasonId franchiseId
    ##              <int>      <int>        <int> <int>         <int>       <int>
    ##  1               1          2           NA     1      19821983          23
    ##  2               1          2           NA     1      19821983          23
    ##  3               1          2           NA     3      19721973          22
    ##  4               1          2           NA     3      19721973          22
    ##  5               1          2           NA     5      19261927          10
    ##  6               1          2           NA     5      19261927          10
    ##  7               1          2           NA     8      19671968          16
    ##  8               1          2           NA     8      19671968          16
    ##  9               1          2           NA     9      19671968          17
    ## 10               1          2           NA     9      19671968          17
    ## # … with 52 more rows, and 33 more variables: gamesPlayed <int>,
    ## #   goalsAgainst <int>, goalsFor <int>, homeLosses <int>,
    ## #   homeOvertimeLosses <int>, homeTies <int>, homeWins <int>, losses <int>,
    ## #   overtimeLosses <int>, penaltyMinutes <int>, pointPctg <dbl>, points <int>,
    ## #   roadLosses <int>, roadOvertimeLosses <int>, roadTies <int>, roadWins <int>,
    ## #   shootoutLosses <int>, shootoutWins <int>, shutouts <int>, teamId <int>,
    ## #   teamName.x <chr>, ties <int>, abbreviation.x <chr>, wins <int>, name <chr>,
    ## #   abbreviation.y <chr>, teamName.y <chr>, venue.name <chr>, venue.city <chr>,
    ## #   division.id <int>, division.name <chr>, conference.id <int>,
…
# % of losses from home games
new.data$perc.home.loss <- (new.data$homeLosses / (new.data$homeLosses + new.data$homeOvertimeLosses + new.data$homeTies + new.data$homeWins) *100) %>% round(2)

# % of wins from road games
new.data$perc.road.win <- (new.data$roadWins / (new.data$roadLosses + new.data$roadOvertimeLosses + new.data$roadTies + new.data$roadWins) *100) %>% round(2)

# % of losses from road games
new.data$perc.road.loss <- (new.data$roadLosses / (new.data$roadLosses + new.data$roadOvertimeLosses + new.data$roadTies + new.data$roadWins) *100) %>% round(2)

new.data
```

    ## # A tibble: 62 x 45
    ##    activeFranchise gameTypeId lastSeasonId    id firstSeasonId franchiseId
    ##              <int>      <int>        <int> <int>         <int>       <int>
    ##  1               1          2           NA     1      19821983          23
    ##  2               1          2           NA     1      19821983          23
    ##  3               1          2           NA     3      19721973          22
    ##  4               1          2           NA     3      19721973          22
    ##  5               1          2           NA     5      19261927          10
    ##  6               1          2           NA     5      19261927          10
    ##  7               1          2           NA     8      19671968          16
    ##  8               1          2           NA     8      19671968          16
    ##  9               1          2           NA     9      19671968          17
    ## 10               1          2           NA     9      19671968          17
    ## # … with 52 more rows, and 39 more variables: gamesPlayed <int>,
    ## #   goalsAgainst <int>, goalsFor <int>, homeLosses <int>,
    ## #   homeOvertimeLosses <int>, homeTies <int>, homeWins <int>, losses <int>,
    ## #   overtimeLosses <int>, penaltyMinutes <int>, pointPctg <dbl>, points <int>,
    ## #   roadLosses <int>, roadOvertimeLosses <int>, roadTies <int>, roadWins <int>,
    ## #   shootoutLosses <int>, shootoutWins <int>, shutouts <int>, teamId <int>,
    ## #   teamName.x <chr>, ties <int>, abbreviation.x <chr>, wins <int>, name <chr>,
    ## #   abbreviation.y <chr>, teamName.y <chr>, venue.name <chr>, venue.city <chr>,
    ## #   division.id <int>, division.name <chr>, conference.id <int>,
…
``` r
#write_csv(new.data, "new.data.csv")
```

## Read data from 2 different API’s and combine

``` r
# read from goalie records endpoint for hurricanes
goalie.records <- get.nhl.data(table.name = "franchise-goalie-records", id = 26)
goalie.records
```

    ## # A tibble: 38 x 29
    ##       id activePlayer firstName franchiseId franchiseName gameTypeId gamesPlayed
    ##    <int> <lgl>        <chr>           <int> <chr>              <int>       <int>
    ##  1   336 FALSE        Tom                26 Carolina Hur…          2          34
    ##  2   363 FALSE        Richard            26 Carolina Hur…          2           6
    ##  3   369 FALSE        Sean               26 Carolina Hur…          2         256
    ##  4   411 FALSE        Mark               26 Carolina Hur…          2           3
    ##  5   425 FALSE        John               26 Carolina Hur…          2         122
    ##  6   430 FALSE        Mario              26 Carolina Hur…          2          23
    ##  7   470 FALSE        Pat                26 Carolina Hur…          2           5
    ##  8   490 FALSE        Mike               26 Carolina Hur…          2         252
    ##  9   508 FALSE        Kirk               26 Carolina Hur…          2           8
    ## 10   525 FALSE        Greg               26 Carolina Hur…          2         219
    ## # … with 28 more rows, and 22 more variables: lastName <chr>, losses <int>,
    ## #   mostGoalsAgainstDates <chr>, mostGoalsAgainstOneGame <int>,
    ## #   mostSavesDates <chr>, mostSavesOneGame <int>, mostShotsAgainstDates <chr>,
    ## #   mostShotsAgainstOneGame <int>, mostShutoutsOneSeason <int>,
    ## #   mostShutoutsSeasonIds <chr>, mostWinsOneSeason <int>,
    ## #   mostWinsSeasonIds <chr>, overtimeLosses <int>, playerId <int>,
    ## #   positionCode <chr>, rookieGamesPlayed <int>, rookieShutouts <int>,
    ## #   rookieWins <int>, seasons <int>, shutouts <int>, ties <int>, wins <int>

``` r
# read from skater records endpoint for hurricanes
skater.records <- get.nhl.data(table.name = "franchise-skater-records", id = 26)
skater.records
```

    ## # A tibble: 487 x 31
    ##       id activePlayer assists firstName franchiseId franchiseName     gameTypeId
    ##    <int> <lgl>          <int> <chr>           <int> <chr>                  <int>
    ##  1 17239 FALSE              0 Jim                26 Carolina Hurrica…          2
    ##  2 17418 FALSE              1 Mike               26 Carolina Hurrica…          2
    ##  3 17543 FALSE              0 Fred               26 Carolina Hurrica…          2
    ##  4 17703 FALSE              2 Jergus             26 Carolina Hurrica…          2
    ##  5 17728 FALSE              0 Reid               26 Carolina Hurrica…          2
    ##  6 18169 FALSE              0 Bob                26 Carolina Hurrica…          2
    ##  7 18233 FALSE              0 Charlie            26 Carolina Hurrica…          2
    ##  8 18288 FALSE              0 Greg               26 Carolina Hurrica…          2
    ##  9 18328 FALSE              1 Jeff               26 Carolina Hurrica…          2
    ## 10 18799 FALSE              1 Shane              26 Carolina Hurrica…          2
    ## # … with 477 more rows, and 24 more variables: gamesPlayed <int>, goals <int>,
    ## #   lastName <chr>, mostAssistsGameDates <chr>, mostAssistsOneGame <int>,
    ## #   mostAssistsOneSeason <int>, mostAssistsSeasonIds <chr>,
    ## #   mostGoalsGameDates <chr>, mostGoalsOneGame <int>, mostGoalsOneSeason <int>,
    ## #   mostGoalsSeasonIds <chr>, mostPenaltyMinutesOneSeason <int>,
    ## #   mostPenaltyMinutesSeasonIds <chr>, mostPointsGameDates <chr>,
    ## #   mostPointsOneGame <int>, mostPointsOneSeason <int>,
    ## #   mostPointsSeasonIds <chr>, penaltyMinutes <int>, playerId <int>,
    ## #   points <int>, positionCode <chr>, rookieGamesPlayed <int>,
…
``` r
# find common columns between the two data frames
common.names <- intersect(names(goalie.records), names(skater.records))

# only keep common columns in each data frame
goalie.records <- goalie.records %>% select(all_of(common.names))
skater.records <- skater.records %>% select(all_of(common.names))

# combine the 2 data frames together
hurricanes.players.record <- rbind(goalie.records, skater.records)
hurricanes.players.record
```

    ## # A tibble: 525 x 12
    ##       id activePlayer firstName franchiseId franchiseName gameTypeId gamesPlayed
    ##    <int> <lgl>        <chr>           <int> <chr>              <int>       <int>
    ##  1   336 FALSE        Tom                26 Carolina Hur…          2          34
    ##  2   363 FALSE        Richard            26 Carolina Hur…          2           6
    ##  3   369 FALSE        Sean               26 Carolina Hur…          2         256
    ##  4   411 FALSE        Mark               26 Carolina Hur…          2           3
    ##  5   425 FALSE        John               26 Carolina Hur…          2         122
    ##  6   430 FALSE        Mario              26 Carolina Hur…          2          23
    ##  7   470 FALSE        Pat                26 Carolina Hur…          2           5
    ##  8   490 FALSE        Mike               26 Carolina Hur…          2         252
    ##  9   508 FALSE        Kirk               26 Carolina Hur…          2           8
    ## 10   525 FALSE        Greg               26 Carolina Hur…          2         219
    ## # … with 515 more rows, and 5 more variables: lastName <chr>, playerId <int>,
    ## #   positionCode <chr>, rookieGamesPlayed <int>, seasons <int>

``` r
# read from goalie records endpoint for hurricanes
goalie.records2 <- get.nhl.data(table.name = "franchise-goalie-records")
goalie.records2
```

    ## # A tibble: 1,078 x 29
    ##       id activePlayer firstName franchiseId franchiseName gameTypeId gamesPlayed
    ##    <int> <lgl>        <chr>           <int> <chr>              <int>       <int>
    ##  1   235 FALSE        Don                15 Dallas Stars           2         315
    ##  2   236 FALSE        Bob                28 Arizona Coyo…          2         281
    ##  3   237 FALSE        Tony               11 Chicago Blac…          2         873
    ##  4   238 FALSE        Grant              25 Edmonton Oil…          2         423
    ##  5   239 FALSE        Ron                16 Philadelphia…          2         489
    ##  6   240 FALSE        Curtis             18 St. Louis Bl…          2         280
    ##  7   241 FALSE        Olie               24 Washington C…          2         711
    ##  8   242 FALSE        Mike               18 St. Louis Bl…          2         347
    ##  9   243 FALSE        Kirk               20 Vancouver Ca…          2         516
    ## 10   244 FALSE        Gilles             13 Cleveland Ba…          2         250
    ## # … with 1,068 more rows, and 22 more variables: lastName <chr>, losses <int>,
    ## #   mostGoalsAgainstDates <chr>, mostGoalsAgainstOneGame <int>,
    ## #   mostSavesDates <chr>, mostSavesOneGame <int>, mostShotsAgainstDates <chr>,
    ## #   mostShotsAgainstOneGame <int>, mostShutoutsOneSeason <int>,
    ## #   mostShutoutsSeasonIds <chr>, mostWinsOneSeason <int>,
    ## #   mostWinsSeasonIds <chr>, overtimeLosses <int>, playerId <int>,
    ## #   positionCode <chr>, rookieGamesPlayed <int>, rookieShutouts <int>,
    ## #   rookieWins <int>, seasons <int>, shutouts <int>, ties <int>, wins <int>

``` r
# read from skater records endpoint for hurricanes
skater.records2 <- get.nhl.data(table.name = "franchise-skater-records")
skater.records2
```

    ## # A tibble: 17,209 x 31
    ##       id activePlayer assists firstName franchiseId franchiseName     gameTypeId
    ##    <int> <lgl>          <int> <chr>           <int> <chr>                  <int>
    ##  1 16888 FALSE            417 George              5 Toronto Maple Le…          2
    ##  2 16889 FALSE              0 Billy               2 Montreal Wandere…          2
    ##  3 16890 FALSE            794 Johnny              6 Boston Bruins              2
    ##  4 16891 FALSE            712 Jean                1 Montréal Canadie…          2
    ##  5 16892 FALSE           1111 Ray                 6 Boston Bruins              2
    ##  6 16893 FALSE             33 Harold              9 Philadelphia Qua…          2
    ##  7 16894 FALSE             13 Herb                9 Philadelphia Qua…          2
    ##  8 16895 FALSE            852 Bobby              16 Philadelphia Fly…          2
    ##  9 16896 FALSE            142 Ken                23 New Jersey Devils          2
    ## 10 16897 FALSE              0 Gerry               2 Montreal Wandere…          2
    ## # … with 17,199 more rows, and 24 more variables: gamesPlayed <int>,
    ## #   goals <int>, lastName <chr>, mostAssistsGameDates <chr>,
    ## #   mostAssistsOneGame <int>, mostAssistsOneSeason <int>,
    ## #   mostAssistsSeasonIds <chr>, mostGoalsGameDates <chr>,
    ## #   mostGoalsOneGame <int>, mostGoalsOneSeason <int>, mostGoalsSeasonIds <chr>,
    ## #   mostPenaltyMinutesOneSeason <int>, mostPenaltyMinutesSeasonIds <chr>,
    ## #   mostPointsGameDates <chr>, mostPointsOneGame <int>,
    ## #   mostPointsOneSeason <int>, mostPointsSeasonIds <chr>, penaltyMinutes <int>,
    ## #   playerId <int>, points <int>, positionCode <chr>, rookieGamesPlayed <int>,
…
``` r
# find common columns between the two data frames
common.names <- intersect(names(goalie.records), names(skater.records))

# only keep common columns in each data frame
goalie.records2 <- goalie.records2 %>% select(all_of(common.names))
skater.records2 <- skater.records2 %>% select(all_of(common.names))

# combine the 2 data frames together
players.record.all <- rbind(goalie.records2, skater.records2)
players.record.all
```

    ## # A tibble: 18,287 x 12
    ##       id activePlayer firstName franchiseId franchiseName gameTypeId gamesPlayed
    ##    <int> <lgl>        <chr>           <int> <chr>              <int>       <int>
    ##  1   235 FALSE        Don                15 Dallas Stars           2         315
    ##  2   236 FALSE        Bob                28 Arizona Coyo…          2         281
    ##  3   237 FALSE        Tony               11 Chicago Blac…          2         873
    ##  4   238 FALSE        Grant              25 Edmonton Oil…          2         423
    ##  5   239 FALSE        Ron                16 Philadelphia…          2         489
    ##  6   240 FALSE        Curtis             18 St. Louis Bl…          2         280
    ##  7   241 FALSE        Olie               24 Washington C…          2         711
    ##  8   242 FALSE        Mike               18 St. Louis Bl…          2         347
    ##  9   243 FALSE        Kirk               20 Vancouver Ca…          2         516
    ## 10   244 FALSE        Gilles             13 Cleveland Ba…          2         250
    ## # … with 18,277 more rows, and 5 more variables: lastName <chr>,
    ## #   playerId <int>, positionCode <chr>, rookieGamesPlayed <int>, seasons <int>

``` r
#write_csv(players.record.all, "players.record.all.csv")
```

## Read data from 2 different API’s

``` r
franchise.data <- get.nhl.data(table.name = "franchise")
franchise.data <- franchise.data %>% select(id, mostRecentTeamId, teamCommonName, teamAbbrev, teamPlaceName)
franchise.data
```

    ## # A tibble: 39 x 5
    ##       id mostRecentTeamId teamCommonName teamAbbrev teamPlaceName
    ##    <int>            <int> <chr>          <chr>      <chr>        
    ##  1     1                8 Canadiens      MTL        Montréal     
    ##  2     2               41 Wanderers      MWN        Montreal     
    ##  3     3               45 Eagles         SLE        St. Louis    
    ##  4     4               37 Tigers         HAM        Hamilton     
    ##  5     5               10 Maple Leafs    TOR        Toronto      
    ##  6     6                6 Bruins         BOS        Boston       
    ##  7     7               43 Maroons        MMR        Montreal     
    ##  8     8               51 Americans      BRK        Brooklyn     
    ##  9     9               39 Quakers        QUA        Philadelphia 
    ## 10    10                3 Rangers        NYR        New York     
    ## # … with 29 more rows
…
