…
# Write functions to contact the NHL records and stats API’s

## NHL records API

``` r
# map id, team names and most recent id
franchise.url <- GET("https://records.nhl.com/site/api/franchise")
franchise.txt <- content(franchise.url, "text", encoding = "UTF-8")
franchise.json <- fromJSON(franchise.txt, flatten=TRUE)
franchise.list <- franchise.json$data %>% as.data.frame()
franchise.tbl <- tibble(franchise.list$id, franchise.list$teamCommonName, franchise.list$fullName, franchise.list$mostRecentTeamId)
franchise.tbl
```

    ## # A tibble: 39 x 4
    ##    `franchise.list$… `franchise.list$tea… `franchise.list$f… `franchise.list$mo…
    ##                <int> <chr>                <chr>                            <int>
    ##  1                 1 Canadiens            Montréal Canadiens                   8
    ##  2                 2 Wanderers            Montreal Wanderers                  41
    ##  3                 3 Eagles               St. Louis Eagles                    45
    ##  4                 4 Tigers               Hamilton Tigers                     37
    ##  5                 5 Maple Leafs          Toronto Maple Lea…                  10
    ##  6                 6 Bruins               Boston Bruins                        6
    ##  7                 7 Maroons              Montreal Maroons                    43
    ##  8                 8 Americans            Brooklyn Americans                  51
    ##  9                 9 Quakers              Philadelphia Quak…                  39
    ## 10                10 Rangers              New York Rangers                     3
    ## # … with 29 more rows
…
  ## table name not given
  else {
    return ("Must provide a table name to get results.")
  }
}
```

### Try out NHL records API

``` r
get.records("franchise-goalie-records")
```

    ## # A tibble: 1,078 x 29
    ##       id activePlayer firstName franchiseId franchiseName gameTypeId gamesPlayed
    ##    <int> <lgl>        <chr>           <int> <chr>              <int>       <int>
    ##  1   235 FALSE        Don                15 Dallas Stars           2         315
    ##  2   236 FALSE        Bob                28 Arizona Coyo…          2         281
    ##  3   237 FALSE        Tony               11 Chicago Blac…          2         873
    ##  4   238 FALSE        Grant              25 Edmonton Oil…          2         423
    ##  5   239 FALSE        Ron                16 Philadelphia…          2         489
    ##  6   240 FALSE        Curtis             18 St. Louis Bl…          2         280
    ##  7   241 FALSE        Olie               24 Washington C…          2         711
    ##  8   242 FALSE        Mike               18 St. Louis Bl…          2         347
    ##  9   243 FALSE        Kirk               20 Vancouver Ca…          2         516
    ## 10   244 FALSE        Gilles             13 Cleveland Ba…          2         250
    ## # … with 1,068 more rows, and 22 more variables: lastName <chr>, losses <int>,
    ## #   mostGoalsAgainstDates <chr>, mostGoalsAgainstOneGame <int>,
    ## #   mostSavesDates <chr>, mostSavesOneGame <int>, mostShotsAgainstDates <chr>,
    ## #   mostShotsAgainstOneGame <int>, mostShutoutsOneSeason <int>,
    ## #   mostShutoutsSeasonIds <chr>, mostWinsOneSeason <int>,
    ## #   mostWinsSeasonIds <chr>, overtimeLosses <int>, playerId <int>,
    ## #   positionCode <chr>, rookieGamesPlayed <int>, rookieShutouts <int>,
    ## #   rookieWins <int>, seasons <int>, shutouts <int>, ties <int>, wins <int>
…
``` r
get.records("franchise-detail")
```

    ## # A tibble: 39 x 13
    ##       id active captainHistory     coachingHistory     dateAwarded directoryUrl 
    ##    <int> <lgl>  <chr>              <chr>               <chr>       <chr>        
    ##  1     1 TRUE   "<ul class=\"stri… "<ul class=\"strip… 1917-11-26… https://www.…
    ##  2     2 FALSE   <NA>               <NA>               1917-11-26… <NA>         
    ##  3     3 FALSE   <NA>               <NA>               1917-11-26… <NA>         
    ##  4     4 FALSE   <NA>               <NA>               1917-11-26… <NA>         
    ##  5     5 TRUE   "<ul class=\"stri… "<ul class=\"strip… 1917-11-26… https://www.…
    ##  6     6 TRUE   "<ul class=\"stri… "<ul class=\"strip… 1924-11-01… https://www.…
    ##  7     7 FALSE   <NA>               <NA>               1924-11-01… <NA>         
    ##  8     8 FALSE   <NA>               <NA>               1925-09-22… <NA>         
    ##  9     9 FALSE   <NA>               <NA>               1925-11-07… <NA>         
    ## 10    10 TRUE   "<ul class=\"stri… "<ul class=\"strip… 1926-05-15… https://www.…
    ## # … with 29 more rows, and 7 more variables: firstSeasonId <int>,
    ## #   generalManagerHistory <chr>, heroImageUrl <chr>, mostRecentTeamId <int>,
    ## #   retiredNumbersSummary <chr>, teamAbbrev <chr>, teamFullName <chr>
…
``` r
get.records("franchise", id=23)
```

    ## [1] "The table selected cannot be returned with the specified ID or team common name input."

``` r
get.records("franchise")
```

    ## # A tibble: 39 x 8
    ##       id firstSeasonId fullName         lastSeasonId mostRecentTeamId teamAbbrev
    ##    <int>         <int> <chr>                   <int>            <int> <chr>     
    ##  1     1      19171918 Montréal Canadi…           NA                8 MTL       
    ##  2     2      19171918 Montreal Wander…     19171918               41 MWN       
    ##  3     3      19171918 St. Louis Eagles     19341935               45 SLE       
    ##  4     4      19191920 Hamilton Tigers      19241925               37 HAM       
    ##  5     5      19171918 Toronto Maple L…           NA               10 TOR       
    ##  6     6      19241925 Boston Bruins              NA                6 BOS       
    ##  7     7      19241925 Montreal Maroons     19371938               43 MMR       
    ##  8     8      19251926 Brooklyn Americ…     19411942               51 BRK       
    ##  9     9      19251926 Philadelphia Qu…     19301931               39 QUA       
    ## 10    10      19261927 New York Rangers           NA                3 NYR       
    ## # … with 29 more rows, and 2 more variables: teamCommonName <chr>,
    ## #   teamPlaceName <chr>
…
    ##  [1] 1 0 1 0 1 0 1 0 1 0 1 0 1 0 1 0 1 0 1 0 1 0 1 0 1 0 1 0 1 0 1 0 1 0 1 0 1 0
    ## [39] 1 0 1 0 1 0 1 0 1 0 1 0 1 0 1 0 1 0 1 0 1 0 1 0 1

``` r
# subset odd rows where numbers are given in raw
data.row.odd <- get.stats.data[row.odd == 1, ]
data.row.odd
```

    ## # A tibble: 32 x 65
    ##       id name       link      abbreviation teamName locationName firstYearOfPlay
    ##    <int> <chr>      <chr>     <chr>        <chr>    <chr>        <chr>          
    ##  1     1 New Jerse… /api/v1/… NJD          Devils   New Jersey   1982           
    ##  2     2 New York … /api/v1/… NYI          Islande… New York     1972           
    ##  3     3 New York … /api/v1/… NYR          Rangers  New York     1926           
    ##  4     4 Philadelp… /api/v1/… PHI          Flyers   Philadelphia 1967           
    ##  5     5 Pittsburg… /api/v1/… PIT          Penguins Pittsburgh   1967           
    ##  6     6 Boston Br… /api/v1/… BOS          Bruins   Boston       1924           
    ##  7     7 Buffalo S… /api/v1/… BUF          Sabres   Buffalo      1970           
    ##  8     8 Montréal … /api/v1/… MTL          Canadie… Montréal     1909           
    ##  9     9 Ottawa Se… /api/v1/… OTT          Senators Ottawa       1990           
    ## 10    10 Toronto M… /api/v1/… TOR          Maple L… Toronto      1917           
    ## # … with 22 more rows, and 58 more variables: stat.gamesPlayed <int>,
    ## #   stat.wins <chr>, stat.losses <chr>, stat.ot <chr>, stat.pts <chr>,
    ## #   stat.ptPctg <chr>, stat.goalsPerGame <chr>, stat.goalsAgainstPerGame <chr>,
    ## #   stat.evGGARatio <chr>, stat.powerPlayPercentage <chr>,
    ## #   stat.powerPlayGoals <chr>, stat.powerPlayGoalsAgainst <chr>,
    ## #   stat.powerPlayOpportunities <chr>, stat.penaltyKillPercentage <chr>,
    ## #   stat.shotsPerGame <chr>, stat.shotsAllowed <chr>, stat.winScoreFirst <chr>,
    ## #   stat.winOppScoreFirst <chr>, stat.winLeadFirstPer <chr>,
    ## #   stat.winLeadSecondPer <chr>, stat.winOutshootOpp <chr>,
…
``` r
# subset even rows where ranks are given instead of raw number
data.row.even.ranks <- get.stats.data[row.odd == 0, ]
data.row.even.ranks
```

    ## # A tibble: 31 x 65
    ##       id name       link      abbreviation teamName locationName firstYearOfPlay
    ##    <int> <chr>      <chr>     <chr>        <chr>    <chr>        <chr>          
    ##  1     1 New Jerse… /api/v1/… NJD          Devils   New Jersey   1982           
    ##  2     2 New York … /api/v1/… NYI          Islande… New York     1972           
    ##  3     3 New York … /api/v1/… NYR          Rangers  New York     1926           
    ##  4     4 Philadelp… /api/v1/… PHI          Flyers   Philadelphia 1967           
    ##  5     5 Pittsburg… /api/v1/… PIT          Penguins Pittsburgh   1967           
    ##  6     6 Boston Br… /api/v1/… BOS          Bruins   Boston       1924           
    ##  7     7 Buffalo S… /api/v1/… BUF          Sabres   Buffalo      1970           
    ##  8     8 Montréal … /api/v1/… MTL          Canadie… Montréal     1909           
    ##  9     9 Ottawa Se… /api/v1/… OTT          Senators Ottawa       1990           
    ## 10    10 Toronto M… /api/v1/… TOR          Maple L… Toronto      1917           
    ## # … with 21 more rows, and 58 more variables: stat.gamesPlayed <int>,
    ## #   stat.wins <chr>, stat.losses <chr>, stat.ot <chr>, stat.pts <chr>,
    ## #   stat.ptPctg <chr>, stat.goalsPerGame <chr>, stat.goalsAgainstPerGame <chr>,
    ## #   stat.evGGARatio <chr>, stat.powerPlayPercentage <chr>,
    ## #   stat.powerPlayGoals <chr>, stat.powerPlayGoalsAgainst <chr>,
    ## #   stat.powerPlayOpportunities <chr>, stat.penaltyKillPercentage <chr>,
    ## #   stat.shotsPerGame <chr>, stat.shotsAllowed <chr>, stat.winScoreFirst <chr>,
    ## #   stat.winOppScoreFirst <chr>, stat.winLeadFirstPer <chr>,
    ## #   stat.winLeadSecondPer <chr>, stat.winOutshootOpp <chr>,
…
``` r
get.nhl.data(table.name = "franchise-team-totals")
```

    ## # A tibble: 105 x 30
    ##       id activeFranchise firstSeasonId franchiseId gameTypeId gamesPlayed
    ##    <int>           <int>         <int>       <int>      <int>       <int>
    ##  1     1               1      19821983          23          2        2993
    ##  2     2               1      19821983          23          3         257
    ##  3     3               1      19721973          22          2        3788
    ##  4     4               1      19721973          22          3         309
    ##  5     5               1      19261927          10          2        6560
    ##  6     6               1      19261927          10          3         518
    ##  7     7               1      19671968          16          3         449
    ##  8     8               1      19671968          16          2        4171
    ##  9     9               1      19671968          17          2        4171
    ## 10    10               1      19671968          17          3         391
    ## # … with 95 more rows, and 24 more variables: goalsAgainst <int>,
    ## #   goalsFor <int>, homeLosses <int>, homeOvertimeLosses <int>, homeTies <int>,
    ## #   homeWins <int>, lastSeasonId <int>, losses <int>, overtimeLosses <int>,
    ## #   penaltyMinutes <int>, pointPctg <dbl>, points <int>, roadLosses <int>,
    ## #   roadOvertimeLosses <int>, roadTies <int>, roadWins <int>,
    ## #   shootoutLosses <int>, shootoutWins <int>, shutouts <int>, teamId <int>,
    ## #   teamName <chr>, ties <int>, triCode <chr>, wins <int>
…
# find common columns between the 2 data frames
common.names.dv <- intersect(names(team.total), names(division))
```

``` r
# combine the 2 tables (join matching rows from division to team.total) together using "franchiseId" as index
new.data <- left_join(team.total, division, by="franchiseId")
new.data
```

    ## # A tibble: 31 x 39
    ##    activeFranchise gameTypeId lastSeasonId    id firstSeasonId franchiseId
    ##              <int>      <int>        <int> <int>         <int>       <int>
    ##  1               1          2           NA     1      19821983          23
    ##  2               1          2           NA     3      19721973          22
    ##  3               1          2           NA     5      19261927          10
    ##  4               1          2           NA     8      19671968          16
    ##  5               1          2           NA     9      19671968          17
    ##  6               1          2           NA    11      19241925           6
    ##  7               1          2           NA    13      19701971          19
    ##  8               1          2           NA    16      19171918           1
    ##  9               1          2           NA    17      19921993          30
    ## 10               1          2           NA    19      19271928           5
    ## # … with 21 more rows, and 33 more variables: gamesPlayed <int>,
    ## #   goalsAgainst <int>, goalsFor <int>, homeLosses <int>,
    ## #   homeOvertimeLosses <int>, homeTies <int>, homeWins <int>, losses <int>,
    ## #   overtimeLosses <int>, penaltyMinutes <int>, pointPctg <dbl>, points <int>,
    ## #   roadLosses <int>, roadOvertimeLosses <int>, roadTies <int>, roadWins <int>,
    ## #   shootoutLosses <int>, shootoutWins <int>, shutouts <int>, teamId <int>,
    ## #   teamName.x <chr>, ties <int>, abbreviation.x <chr>, wins <int>, name <chr>,
    ## #   abbreviation.y <chr>, teamName.y <chr>, venue.name <chr>, venue.city <chr>,
    ## #   division.id <int>, division.name <chr>, conference.id <int>,
…
# % of losses from home games
new.data$perc.home.loss <- (new.data$homeLosses / (new.data$homeLosses + new.data$homeOvertimeLosses + new.data$homeTies + new.data$homeWins) *100) %>% round(2)

# % of wins from road games
new.data$perc.road.win <- (new.data$roadWins / (new.data$roadLosses + new.data$roadOvertimeLosses + new.data$roadTies + new.data$roadWins) *100) %>% round(2)

# % of losses from road games
new.data$perc.road.loss <- (new.data$roadLosses / (new.data$roadLosses + new.data$roadOvertimeLosses + new.data$roadTies + new.data$roadWins) *100) %>% round(2)

new.data
```

    ## # A tibble: 31 x 45
    ##    activeFranchise gameTypeId lastSeasonId    id firstSeasonId franchiseId
    ##              <int>      <int>        <int> <int>         <int>       <int>
    ##  1               1          2           NA     1      19821983          23
    ##  2               1          2           NA     3      19721973          22
    ##  3               1          2           NA     5      19261927          10
    ##  4               1          2           NA     8      19671968          16
    ##  5               1          2           NA     9      19671968          17
    ##  6               1          2           NA    11      19241925           6
    ##  7               1          2           NA    13      19701971          19
    ##  8               1          2           NA    16      19171918           1
    ##  9               1          2           NA    17      19921993          30
    ## 10               1          2           NA    19      19271928           5
    ## # … with 21 more rows, and 39 more variables: gamesPlayed <int>,
    ## #   goalsAgainst <int>, goalsFor <int>, homeLosses <int>,
    ## #   homeOvertimeLosses <int>, homeTies <int>, homeWins <int>, losses <int>,
    ## #   overtimeLosses <int>, penaltyMinutes <int>, pointPctg <dbl>, points <int>,
    ## #   roadLosses <int>, roadOvertimeLosses <int>, roadTies <int>, roadWins <int>,
    ## #   shootoutLosses <int>, shootoutWins <int>, shutouts <int>, teamId <int>,
    ## #   teamName.x <chr>, ties <int>, abbreviation.x <chr>, wins <int>, name <chr>,
    ## #   abbreviation.y <chr>, teamName.y <chr>, venue.name <chr>, venue.city <chr>,
    ## #   division.id <int>, division.name <chr>, conference.id <int>,
    ## #   conference.name <chr>, perc.total.games.win <dbl>,
    ## #   perc.total.games.loss <dbl>, perc.home.win <dbl>, perc.home.loss <dbl>,
    ## #   perc.road.win <dbl>, perc.road.loss <dbl>

## Read data from 2 different endpoints and combine

``` r
# read from goalie records endpoint for hurricanes
goalie.records <- get.nhl.data(table.name = "franchise-goalie-records", id = 26)
goalie.records
```

    ## # A tibble: 38 x 29
    ##       id activePlayer firstName franchiseId franchiseName gameTypeId gamesPlayed
    ##    <int> <lgl>        <chr>           <int> <chr>              <int>       <int>
    ##  1   336 FALSE        Tom                26 Carolina Hur…          2          34
    ##  2   363 FALSE        Richard            26 Carolina Hur…          2           6
    ##  3   369 FALSE        Sean               26 Carolina Hur…          2         256
    ##  4   411 FALSE        Mark               26 Carolina Hur…          2           3
    ##  5   425 FALSE        John               26 Carolina Hur…          2         122
    ##  6   430 FALSE        Mario              26 Carolina Hur…          2          23
    ##  7   470 FALSE        Pat                26 Carolina Hur…          2           5
    ##  8   490 FALSE        Mike               26 Carolina Hur…          2         252
    ##  9   508 FALSE        Kirk               26 Carolina Hur…          2           8
    ## 10   525 FALSE        Greg               26 Carolina Hur…          2         219
    ## # … with 28 more rows, and 22 more variables: lastName <chr>, losses <int>,
    ## #   mostGoalsAgainstDates <chr>, mostGoalsAgainstOneGame <int>,
    ## #   mostSavesDates <chr>, mostSavesOneGame <int>, mostShotsAgainstDates <chr>,
    ## #   mostShotsAgainstOneGame <int>, mostShutoutsOneSeason <int>,
    ## #   mostShutoutsSeasonIds <chr>, mostWinsOneSeason <int>,
    ## #   mostWinsSeasonIds <chr>, overtimeLosses <int>, playerId <int>,
    ## #   positionCode <chr>, rookieGamesPlayed <int>, rookieShutouts <int>,
    ## #   rookieWins <int>, seasons <int>, shutouts <int>, ties <int>, wins <int>
…
