…
Write functions to contact the NHL records and stats API’s

NHL records API

# map id, team names and most recent id
franchise.url <- GET("https://records.nhl.com/site/api/franchise")
franchise.txt <- content(franchise.url, "text", encoding = "UTF-8")
franchise.json <- fromJSON(franchise.txt, flatten=TRUE)
franchise.list <- franchise.json$data %>% as.data.frame()
franchise.tbl <- tibble(franchise.list$id, franchise.list$teamCommonName, franchise.list$fullName, franchise.list$mostRecentTeamId)
franchise.tbl

## # A tibble: 39 x 4
##    `franchise.list$id` `franchise.list$teamCommonName` `franchise.list$fullName` `franchise.list$mostRecentTeamId`
##                  <int> <chr>                           <chr>                                                 <int>
##  1                   1 Canadiens                       Montréal Canadiens                                        8
##  2                   2 Wanderers                       Montreal Wanderers                                       41
##  3                   3 Eagles                          St. Louis Eagles                                         45
##  4                   4 Tigers                          Hamilton Tigers                                          37
##  5                   5 Maple Leafs                     Toronto Maple Leafs                                      10
##  6                   6 Bruins                          Boston Bruins                                             6
##  7                   7 Maroons                         Montreal Maroons                                         43
##  8                   8 Americans                       Brooklyn Americans                                       51
##  9                   9 Quakers                         Philadelphia Quakers                                     39
## 10                  10 Rangers                         New York Rangers                                          3
## # … with 29 more rows
…
  ## table name not given
  else {
    return ("Must provide a table name to get results.")
  }
}

Try out NHL records API

get.records("franchise-goalie-records")

## # A tibble: 1,078 x 29
##       id activePlayer firstName franchiseId franchiseName  gameTypeId gamesPlayed lastName losses mostGoalsAgainstDa… mostGoalsAgainst…
##    <int> <lgl>        <chr>           <int> <chr>               <int>       <int> <chr>     <int> <chr>                           <int>
##  1   235 FALSE        Don                15 Dallas Stars            2         315 Beaupre     125 1983-10-07                         10
##  2   236 FALSE        Bob                28 Arizona Coyot…          2         281 Essensa     114 1992-12-11, 1992-1…                 8
##  3   237 FALSE        Tony               11 Chicago Black…          2         873 Esposito    302 1983-10-15, 1980-1…                10
##  4   238 FALSE        Grant              25 Edmonton Oile…          2         423 Fuhr        117 1984-02-05, 1982-1…                 9
##  5   239 FALSE        Ron                16 Philadelphia …          2         489 Hextall     172 1987-04-05                          9
##  6   240 FALSE        Curtis             18 St. Louis Blu…          2         280 Joseph       96 1992-11-25, 1990-0…                 8
##  7   241 FALSE        Olie               24 Washington Ca…          2         711 Kolzig      293 2006-01-25, 2005-1…                 8
##  8   242 FALSE        Mike               18 St. Louis Blu…          2         347 Liut        133 1982-02-25                          9
##  9   243 FALSE        Kirk               20 Vancouver Can…          2         516 McLean      228 1996-10-19                          9
## 10   244 FALSE        Gilles             13 Cleveland Bar…          2         250 Meloche     140 1973-10-21                         11
## # … with 1,068 more rows, and 18 more variables: mostSavesDates <chr>, mostSavesOneGame <int>, mostShotsAgainstDates <chr>,
## #   mostShotsAgainstOneGame <int>, mostShutoutsOneSeason <int>, mostShutoutsSeasonIds <chr>, mostWinsOneSeason <int>,
## #   mostWinsSeasonIds <chr>, overtimeLosses <int>, playerId <int>, positionCode <chr>, rookieGamesPlayed <int>, rookieShutouts <int>,
## #   rookieWins <int>, seasons <int>, shutouts <int>, ties <int>, wins <int>
…
## # A tibble: 4 x 29
##      id activePlayer firstName franchiseId franchiseName   gameTypeId gamesPlayed lastName  losses mostGoalsAgainst… mostGoalsAgainstO…
##   <int> <lgl>        <chr>           <int> <chr>                <int>       <int> <chr>      <int> <chr>                          <int>
## 1  1231 FALSE        Clint               3 St. Louis Eagl…          2         158 Benedict      58 1917-12-22                        11
## 2   538 FALSE        Bill                3 St. Louis Eagl…          2          90 Beveridge     56 1934-12-13                        11
## 3   248 FALSE        Alec                3 St. Louis Eagl…          2         294 Connell      106 1925-02-11                        10
## 4   600 FALSE        Sammy               3 St. Louis Eagl…          2           2 Hebert         1 1924-03-01                         5
## # … with 18 more variables: mostSavesDates <lgl>, mostSavesOneGame <lgl>, mostShotsAgainstDates <lgl>, mostShotsAgainstOneGame <lgl>,
## #   mostShutoutsOneSeason <int>, mostShutoutsSeasonIds <chr>, mostWinsOneSeason <int>, mostWinsSeasonIds <chr>, overtimeLosses <lgl>,
## #   playerId <int>, positionCode <chr>, rookieGamesPlayed <int>, rookieShutouts <int>, rookieWins <int>, seasons <int>,
## #   shutouts <int>, ties <int>, wins <int>

get.records("franchise-detail")

## # A tibble: 39 x 13
##       id active captainHistory  coachingHistory  dateAwarded  directoryUrl firstSeasonId generalManagerH… heroImageUrl mostRecentTeamId
##    <int> <lgl>  <chr>           <chr>            <chr>        <chr>                <int> <chr>            <chr>                   <int>
##  1     1 TRUE   "<ul class=\"s… "<ul class=\"st… 1917-11-26T… https://www…      19171918 "<ul class=\"st… https://rec…                8
##  2     2 FALSE   <NA>            <NA>            1917-11-26T… <NA>              19171918  <NA>            https://rec…               41
##  3     3 FALSE   <NA>            <NA>            1917-11-26T… <NA>              19171918  <NA>            https://rec…               45
##  4     4 FALSE   <NA>            <NA>            1917-11-26T… <NA>              19191920  <NA>            https://rec…               37
##  5     5 TRUE   "<ul class=\"s… "<ul class=\"st… 1917-11-26T… https://www…      19171918 "<ul class=\"st… https://rec…               10
##  6     6 TRUE   "<ul class=\"s… "<ul class=\"st… 1924-11-01T… https://www…      19241925 "<ul class=\"st… https://rec…                6
##  7     7 FALSE   <NA>            <NA>            1924-11-01T… <NA>              19241925  <NA>            https://rec…               43
##  8     8 FALSE   <NA>            <NA>            1925-09-22T… <NA>              19251926  <NA>            https://rec…               51
##  9     9 FALSE   <NA>            <NA>            1925-11-07T… <NA>              19251926  <NA>            https://rec…               39
## 10    10 TRUE   "<ul class=\"s… "<ul class=\"st… 1926-05-15T… https://www…      19261927 "<ul class=\"st… https://rec…                3
## # … with 29 more rows, and 3 more variables: retiredNumbersSummary <chr>, teamAbbrev <chr>, teamFullName <chr>
…
get.records("franchise", id=23)

## [1] "The table selected cannot be returned with the specified ID or team common name input."

get.records("franchise")

## # A tibble: 39 x 8
##       id firstSeasonId fullName             lastSeasonId mostRecentTeamId teamAbbrev teamCommonName teamPlaceName
##    <int>         <int> <chr>                       <int>            <int> <chr>      <chr>          <chr>        
##  1     1      19171918 Montréal Canadiens             NA                8 MTL        Canadiens      Montréal     
##  2     2      19171918 Montreal Wanderers       19171918               41 MWN        Wanderers      Montreal     
##  3     3      19171918 St. Louis Eagles         19341935               45 SLE        Eagles         St. Louis    
##  4     4      19191920 Hamilton Tigers          19241925               37 HAM        Tigers         Hamilton     
##  5     5      19171918 Toronto Maple Leafs            NA               10 TOR        Maple Leafs    Toronto      
##  6     6      19241925 Boston Bruins                  NA                6 BOS        Bruins         Boston       
##  7     7      19241925 Montreal Maroons         19371938               43 MMR        Maroons        Montreal     
##  8     8      19251926 Brooklyn Americans       19411942               51 BRK        Americans      Brooklyn     
##  9     9      19251926 Philadelphia Quakers     19301931               39 QUA        Quakers        Philadelphia 
## 10    10      19261927 New York Rangers               NA                3 NYR        Rangers        New York     
## # … with 29 more rows
…
get.stats.data <- get.stat2("team.stats")
row.odd <- seq_len(nrow(get.stats.data)) %% 2  ## Create row indicator
row.odd ## Print row indicator

##  [1] 1 0 1 0 1 0 1 0 1 0 1 0 1 0 1 0 1 0 1 0 1 0 1 0 1 0 1 0 1 0 1 0 1 0 1 0 1 0 1 0 1 0 1 0 1 0 1 0 1 0 1 0 1 0 1 0 1 0 1 0 1 0 1

# subset odd rows where numbers are given in raw
data.row.odd <- get.stats.data[row.odd == 1, ]
data.row.odd

## # A tibble: 32 x 65
##       id name      link      abbreviation teamName locationName firstYearOfPlay stat.gamesPlayed stat.wins stat.losses stat.ot stat.pts
##    <int> <chr>     <chr>     <chr>        <chr>    <chr>        <chr>                      <int> <chr>     <chr>       <chr>   <chr>   
##  1     1 New Jers… /api/v1/… NJD          Devils   New Jersey   1982                          56 19        30          7       45      
##  2     2 New York… /api/v1/… NYI          Islande… New York     1972                          56 32        17          7       71      
##  3     3 New York… /api/v1/… NYR          Rangers  New York     1926                          56 27        23          6       60      
##  4     4 Philadel… /api/v1/… PHI          Flyers   Philadelphia 1967                          56 25        23          8       58      
##  5     5 Pittsbur… /api/v1/… PIT          Penguins Pittsburgh   1967                          56 37        16          3       77      
##  6     6 Boston B… /api/v1/… BOS          Bruins   Boston       1924                          56 33        16          7       73      
##  7     7 Buffalo … /api/v1/… BUF          Sabres   Buffalo      1970                          56 15        34          7       37      
##  8     8 Montréal… /api/v1/… MTL          Canadie… Montréal     1909                          56 24        21          11      59      
##  9     9 Ottawa S… /api/v1/… OTT          Senators Ottawa       1990                          56 23        28          5       51      
## 10    10 Toronto … /api/v1/… TOR          Maple L… Toronto      1917                          56 35        14          7       77      
## # … with 22 more rows, and 53 more variables: stat.ptPctg <chr>, stat.goalsPerGame <chr>, stat.goalsAgainstPerGame <chr>,
## #   stat.evGGARatio <chr>, stat.powerPlayPercentage <chr>, stat.powerPlayGoals <chr>, stat.powerPlayGoalsAgainst <chr>,
## #   stat.powerPlayOpportunities <chr>, stat.penaltyKillPercentage <chr>, stat.shotsPerGame <chr>, stat.shotsAllowed <chr>,
## #   stat.winScoreFirst <chr>, stat.winOppScoreFirst <chr>, stat.winLeadFirstPer <chr>, stat.winLeadSecondPer <chr>,
## #   stat.winOutshootOpp <chr>, stat.winOutshotByOpp <chr>, stat.faceOffsTaken <chr>, stat.faceOffsWon <chr>, stat.faceOffsLost <chr>,
## #   stat.faceOffWinPercentage <chr>, stat.shootingPctg <dbl>, stat.savePctg <dbl>, stat.penaltyKillOpportunities <chr>,
## #   stat.savePctRank <chr>, stat.shootingPctRank <chr>, team.id <int>, team.name <chr>, team.link <chr>, type.displayName <chr>,
## #   type.gameType.id <chr>, type.gameType.description <chr>, type.gameType.postseason <lgl>, shortName <chr>, officialSiteUrl <chr>,
## #   franchiseId <int>, active <lgl>, venue.name <chr>, venue.link <chr>, venue.city <chr>, venue.id <int>, venue.timeZone.id <chr>,
## #   venue.timeZone.offset <int>, venue.timeZone.tz <chr>, division.id <int>, division.name <chr>, division.link <chr>,
## #   conference.id <int>, conference.name <chr>, conference.link <chr>, franchise.franchiseId <int>, franchise.teamName <chr>,
## #   franchise.link <chr>

# subset even rows where ranks are given instead of raw number
data.row.even.ranks <- get.stats.data[row.odd == 0, ]
data.row.even.ranks

## # A tibble: 31 x 65
##       id name      link      abbreviation teamName locationName firstYearOfPlay stat.gamesPlayed stat.wins stat.losses stat.ot stat.pts
##    <int> <chr>     <chr>     <chr>        <chr>    <chr>        <chr>                      <int> <chr>     <chr>       <chr>   <chr>   
##  1     1 New Jers… /api/v1/… NJD          Devils   New Jersey   1982                          NA 28th      29th        15th    29th    
##  2     2 New York… /api/v1/… NYI          Islande… New York     1972                          NA 12th      11th        11th    12th    
##  3     3 New York… /api/v1/… NYR          Rangers  New York     1926                          NA 16th      18th        17th    17th    
##  4     4 Philadel… /api/v1/… PHI          Flyers   Philadelphia 1967                          NA 18th      19th        8th     19th    
##  5     5 Pittsbur… /api/v1/… PIT          Penguins Pittsburgh   1967                          NA 4th       7th         25th    7th     
##  6     6 Boston B… /api/v1/… BOS          Bruins   Boston       1924                          NA 11th      9th         10th    10th    
##  7     7 Buffalo … /api/v1/… BUF          Sabres   Buffalo      1970                          NA 31st      31st        16th    31st    
##  8     8 Montréal… /api/v1/… MTL          Canadie… Montréal     1909                          NA 19th      15th        3rd     18th    
##  9     9 Ottawa S… /api/v1/… OTT          Senators Ottawa       1990                          NA 23rd      25th        22nd    23rd    
## 10    10 Toronto … /api/v1/… TOR          Maple L… Toronto      1917                          NA 8th       5th         9th     5th     
## # … with 21 more rows, and 53 more variables: stat.ptPctg <chr>, stat.goalsPerGame <chr>, stat.goalsAgainstPerGame <chr>,
## #   stat.evGGARatio <chr>, stat.powerPlayPercentage <chr>, stat.powerPlayGoals <chr>, stat.powerPlayGoalsAgainst <chr>,
## #   stat.powerPlayOpportunities <chr>, stat.penaltyKillPercentage <chr>, stat.shotsPerGame <chr>, stat.shotsAllowed <chr>,
## #   stat.winScoreFirst <chr>, stat.winOppScoreFirst <chr>, stat.winLeadFirstPer <chr>, stat.winLeadSecondPer <chr>,
## #   stat.winOutshootOpp <chr>, stat.winOutshotByOpp <chr>, stat.faceOffsTaken <chr>, stat.faceOffsWon <chr>, stat.faceOffsLost <chr>,
## #   stat.faceOffWinPercentage <chr>, stat.shootingPctg <dbl>, stat.savePctg <dbl>, stat.penaltyKillOpportunities <chr>,
## #   stat.savePctRank <chr>, stat.shootingPctRank <chr>, team.id <int>, team.name <chr>, team.link <chr>, type.displayName <chr>,
## #   type.gameType.id <chr>, type.gameType.description <chr>, type.gameType.postseason <lgl>, shortName <chr>, officialSiteUrl <chr>,
## #   franchiseId <int>, active <lgl>, venue.name <chr>, venue.link <chr>, venue.city <chr>, venue.id <int>, venue.timeZone.id <chr>,
…
get.nhl.data(table.name = "franchise-team-totals")

## # A tibble: 105 x 30
##       id activeFranchise firstSeasonId franchiseId gameTypeId gamesPlayed goalsAgainst goalsFor homeLosses homeOvertimeLosses homeTies
##    <int>           <int>         <int>       <int>      <int>       <int>        <int>    <int>      <int>              <int>    <int>
##  1     1               1      19821983          23          2        2993         8902     8792        525                 85       96
##  2     2               1      19821983          23          3         257          634      697         53                  0       NA
##  3     3               1      19721973          22          2        3788        11907    12045        678                 84      170
##  4     4               1      19721973          22          3         309          897      983         53                  1       NA
##  5     5               1      19261927          10          2        6560        20020    20041       1143                 76      448
##  6     6               1      19261927          10          3         518         1447     1404        104                  0        1
##  7     7               1      19671968          16          3         449         1332     1335         97                  0       NA
##  8     8               1      19671968          16          2        4171        12255    13690        584                 93      193
##  9     9               1      19671968          17          2        4171        14049    13874        683                 60      205
## 10    10               1      19671968          17          3         391         1131     1190         85                  0       NA
## # … with 95 more rows, and 19 more variables: homeWins <int>, lastSeasonId <int>, losses <int>, overtimeLosses <int>,
## #   penaltyMinutes <int>, pointPctg <dbl>, points <int>, roadLosses <int>, roadOvertimeLosses <int>, roadTies <int>, roadWins <int>,
## #   shootoutLosses <int>, shootoutWins <int>, shutouts <int>, teamId <int>, teamName <chr>, ties <int>, triCode <chr>, wins <int>
…
